module broker

go 1.21.5

require (
	github.com/go-chi/chi/v5 v5.0.11
	github.com/go-chi/cors v1.2.1
)

require (
	github.com/golang/protobuf v1.5.3 // indirect
	github.com/rabbitmq/amqp091-go v1.9.0 // indirect
	golang.org/x/net v0.16.0 // indirect
	golang.org/x/sys v0.13.0 // indirect
	golang.org/x/text v0.13.0 // indirect
	google.golang.org/genproto/googleapis/rpc v0.0.0-20231002182017-d307bd883b97 // indirect
	google.golang.org/grpc v1.60.1 // indirect
	google.golang.org/protobuf v1.32.0 // indirect
)
